%YAML 1.1
%TAG !u! tag:unity3d.com,2011:
--- !u!1 &3197203193075509569
GameObject:
  m_ObjectHideFlags: 0
  m_CorrespondingSourceObject: {fileID: 0}
  m_PrefabInstance: {fileID: 0}
  m_PrefabAsset: {fileID: 0}
  serializedVersion: 6
  m_Component:
  - component: {fileID: 1196831379931803793}
  m_Layer: 6
  m_Name: Tree
  m_TagString: Untagged
  m_Icon: {fileID: 0}
  m_NavMeshLayer: 0
  m_StaticEditorFlags: 0
  m_IsActive: 1
--- !u!4 &1196831379931803793
Transform:
  m_ObjectHideFlags: 0
  m_CorrespondingSourceObject: {fileID: 0}
  m_PrefabInstance: {fileID: 0}
  m_PrefabAsset: {fileID: 0}
  m_GameObject: {fileID: 3197203193075509569}
  m_LocalRotation: {x: 0, y: 0, z: 0, w: 1}
  m_LocalPosition: {x: 0, y: 0, z: 0}
  m_LocalScale: {x: 1, y: 1, z: 1}
  m_Children:
  - {fileID: 4448209646923377397}
  - {fileID: 1283934360346628216}
  m_Father: {fileID: 0}
  m_RootOrder: 0
  m_LocalEulerAnglesHint: {x: 0, y: 0, z: 0}
--- !u!1 &8219506340537443506
GameObject:
  m_ObjectHideFlags: 0
  m_CorrespondingSourceObject: {fileID: 0}
  m_PrefabInstance: {fileID: 0}
  m_PrefabAsset: {fileID: 0}
  serializedVersion: 6
  m_Component:
  - component: {fileID: 4448209646923377397}
  - component: {fileID: 5607302445102490977}
  - component: {fileID: 1181217457973384510}
  - component: {fileID: 7837410581773809662}
  m_Layer: 6
  m_Name: Body
  m_TagString: Untagged
  m_Icon: {fileID: 0}
  m_NavMeshLayer: 0
  m_StaticEditorFlags: 0
  m_IsActive: 1
--- !u!4 &4448209646923377397
Transform:
  m_ObjectHideFlags: 0
  m_CorrespondingSourceObject: {fileID: 0}
  m_PrefabInstance: {fileID: 0}
  m_PrefabAsset: {fileID: 0}
  m_GameObject: {fileID: 8219506340537443506}
  m_LocalRotation: {x: -0, y: -0, z: -0, w: 1}
  m_LocalPosition: {x: 0, y: 1, z: 0}
  m_LocalScale: {x: 1, y: 2, z: 1}
  m_Children: []
  m_Father: {fileID: 1196831379931803793}
  m_RootOrder: 0
  m_LocalEulerAnglesHint: {x: 0, y: 0, z: 0}
--- !u!33 &5607302445102490977
MeshFilter:
  m_ObjectHideFlags: 0
  m_CorrespondingSourceObject: {fileID: 0}
  m_PrefabInstance: {fileID: 0}
  m_PrefabAsset: {fileID: 0}
  m_GameObject: {fileID: 8219506340537443506}
  m_Mesh: {fileID: 10202, guid: 0000000000000000e000000000000000, type: 0}
--- !u!23 &1181217457973384510
MeshRenderer:
  m_ObjectHideFlags: 0
  m_CorrespondingSourceObject: {fileID: 0}
  m_PrefabInstance: {fileID: 0}
  m_PrefabAsset: {fileID: 0}
  m_GameObject: {fileID: 8219506340537443506}
  m_Enabled: 0
  m_CastShadows: 1
  m_ReceiveShadows: 1
  m_DynamicOccludee: 1
  m_MotionVectors: 1
  m_LightProbeUsage: 1
  m_ReflectionProbeUsage: 1
  m_RayTracingMode: 2
  m_RayTraceProcedural: 0
  m_RenderingLayerMask: 1
  m_RendererPriority: 0
  m_Materials:
  - {fileID: 2100000, guid: 7579813a54ab4554eb5eca1f9b77ac26, type: 2}
  m_StaticBatchInfo:
    firstSubMesh: 0
    subMeshCount: 0
  m_StaticBatchRoot: {fileID: 0}
  m_ProbeAnchor: {fileID: 0}
  m_LightProbeVolumeOverride: {fileID: 0}
  m_ScaleInLightmap: 1
  m_ReceiveGI: 1
  m_PreserveUVs: 0
  m_IgnoreNormalsForChartDetection: 0
  m_ImportantGI: 0
  m_StitchLightmapSeams: 1
  m_SelectedEditorRenderState: 3
  m_MinimumChartSize: 4
  m_AutoUVMaxDistance: 0.5
  m_AutoUVMaxAngle: 89
  m_LightmapParameters: {fileID: 0}
  m_SortingLayerID: 0
  m_SortingLayer: 0
  m_SortingOrder: 0
  m_AdditionalVertexStreams: {fileID: 0}
--- !u!65 &7837410581773809662
BoxCollider:
  m_ObjectHideFlags: 0
  m_CorrespondingSourceObject: {fileID: 0}
  m_PrefabInstance: {fileID: 0}
  m_PrefabAsset: {fileID: 0}
  m_GameObject: {fileID: 8219506340537443506}
  m_Material: {fileID: 0}
  m_IsTrigger: 0
  m_Enabled: 1
  serializedVersion: 2
  m_Size: {x: 1, y: 0.5, z: 1}
  m_Center: {x: 0, y: -0.25, z: 0}
--- !u!1001 &1283934360347033456
PrefabInstance:
  m_ObjectHideFlags: 0
  serializedVersion: 2
  m_Modification:
    m_TransformParent: {fileID: 1196831379931803793}
    m_Modifications:
    - target: {fileID: 191266, guid: c44bd9bdc114d4a60932c0087d9d1732, type: 3}
      propertyPath: m_Name
      value: Oak_Tree
      objectReference: {fileID: 0}
    - target: {fileID: 405256, guid: c44bd9bdc114d4a60932c0087d9d1732, type: 3}
      propertyPath: m_RootOrder
      value: 1
      objectReference: {fileID: 0}
    - target: {fileID: 405256, guid: c44bd9bdc114d4a60932c0087d9d1732, type: 3}
      propertyPath: m_LocalScale.x
      value: 0.3024792
      objectReference: {fileID: 0}
    - target: {fileID: 405256, guid: c44bd9bdc114d4a60932c0087d9d1732, type: 3}
      propertyPath: m_LocalScale.y
      value: 0.39
      objectReference: {fileID: 0}
    - target: {fileID: 405256, guid: c44bd9bdc114d4a60932c0087d9d1732, type: 3}
      propertyPath: m_LocalScale.z
      value: 0.3024792
      objectReference: {fileID: 0}
    - target: {fileID: 405256, guid: c44bd9bdc114d4a60932c0087d9d1732, type: 3}
      propertyPath: m_LocalPosition.x
      value: 0.029089
      objectReference: {fileID: 0}
    - target: {fileID: 405256, guid: c44bd9bdc114d4a60932c0087d9d1732, type: 3}
      propertyPath: m_LocalPosition.y
      value: 0
      objectReference: {fileID: 0}
    - target: {fileID: 405256, guid: c44bd9bdc114d4a60932c0087d9d1732, type: 3}
      propertyPath: m_LocalPosition.z
      value: 0.067001
      objectReference: {fileID: 0}
    - target: {fileID: 405256, guid: c44bd9bdc114d4a60932c0087d9d1732, type: 3}
      propertyPath: m_LocalRotation.w
      value: 1
      objectReference: {fileID: 0}
    - target: {fileID: 405256, guid: c44bd9bdc114d4a60932c0087d9d1732, type: 3}
      propertyPath: m_LocalRotation.x
      value: 0.000000021855694
      objectReference: {fileID: 0}
    - target: {fileID: 405256, guid: c44bd9bdc114d4a60932c0087d9d1732, type: 3}
      propertyPath: m_LocalRotation.y
      value: 0
      objectReference: {fileID: 0}
    - target: {fileID: 405256, guid: c44bd9bdc114d4a60932c0087d9d1732, type: 3}
      propertyPath: m_LocalRotation.z
      value: -0
      objectReference: {fileID: 0}
    - target: {fileID: 405256, guid: c44bd9bdc114d4a60932c0087d9d1732, type: 3}
      propertyPath: m_LocalEulerAnglesHint.x
      value: 0
      objectReference: {fileID: 0}
    - target: {fileID: 405256, guid: c44bd9bdc114d4a60932c0087d9d1732, type: 3}
      propertyPath: m_LocalEulerAnglesHint.y
      value: 0
      objectReference: {fileID: 0}
    - target: {fileID: 405256, guid: c44bd9bdc114d4a60932c0087d9d1732, type: 3}
      propertyPath: m_LocalEulerAnglesHint.z
      value: 0
      objectReference: {fileID: 0}
    m_RemovedComponents: []
  m_SourcePrefab: {fileID: 100100000, guid: c44bd9bdc114d4a60932c0087d9d1732, type: 3}
--- !u!4 &1283934360346628216 stripped
Transform:
  m_CorrespondingSourceObject: {fileID: 405256, guid: c44bd9bdc114d4a60932c0087d9d1732, type: 3}
  m_PrefabInstance: {fileID: 1283934360347033456}
  m_PrefabAsset: {fileID: 0}
