[api-updater (non-obsolete-error-filter)] 21.06.2021 22.00.27 : Starting C:/Program Files/Unity/Hub/Editor/2020.2.1f1/Editor/Data/Tools/ScriptUpdater/APIUpdater.NonObsoleteApiUpdaterDetector.exe
[api-updater (non-obsolete-error-filter)] 
----------------------------------
jit/startup time      : 244,589ms
moved types parse time: 48ms
candidates parse time : 1ms
C# parse time         : 196ms
candidates check time : 39ms
console write time    : 0ms

[api-updater (non-obsolete-error-filter)] 22.06.2021 00.33.02 : Starting C:/Program Files/Unity/Hub/Editor/2020.2.1f1/Editor/Data/Tools/ScriptUpdater/APIUpdater.NonObsoleteApiUpdaterDetector.exe
[api-updater (non-obsolete-error-filter)] 
----------------------------------
jit/startup time      : 57,8411ms
moved types parse time: 42ms
candidates parse time : 0ms
C# parse time         : 147ms
candidates check time : 22ms
console write time    : 0ms

[api-updater (non-obsolete-error-filter)] 22.06.2021 00.48.50 : Starting C:/Program Files/Unity/Hub/Editor/2020.2.1f1/Editor/Data/Tools/ScriptUpdater/APIUpdater.NonObsoleteApiUpdaterDetector.exe
[api-updater (non-obsolete-error-filter)] 
----------------------------------
jit/startup time      : 50,1932ms
moved types parse time: 42ms
candidates parse time : 0ms
C# parse time         : 147ms
candidates check time : 24ms
console write time    : 0ms

[api-updater (non-obsolete-error-filter)] 22.06.2021 00.49.18 : Starting C:/Program Files/Unity/Hub/Editor/2020.2.1f1/Editor/Data/Tools/ScriptUpdater/APIUpdater.NonObsoleteApiUpdaterDetector.exe
[api-updater (non-obsolete-error-filter)] 
----------------------------------
jit/startup time      : 48,8682ms
moved types parse time: 40ms
candidates parse time : 0ms
C# parse time         : 148ms
candidates check time : 24ms
console write time    : 0ms

[api-updater (non-obsolete-error-filter)] 22.06.2021 10.03.23 : Starting C:/Program Files/Unity/Hub/Editor/2020.2.1f1/Editor/Data/Tools/ScriptUpdater/APIUpdater.NonObsoleteApiUpdaterDetector.exe
[api-updater (non-obsolete-error-filter)] 
----------------------------------
jit/startup time      : 177,3366ms
moved types parse time: 54ms
candidates parse time : 1ms
C# parse time         : 205ms
candidates check time : 30ms
console write time    : 0ms

[api-updater (non-obsolete-error-filter)] 22.06.2021 12.19.11 : Starting C:/Program Files/Unity/Hub/Editor/2020.2.1f1/Editor/Data/Tools/ScriptUpdater/APIUpdater.NonObsoleteApiUpdaterDetector.exe
[api-updater (non-obsolete-error-filter)] 
----------------------------------
jit/startup time      : 57,8468ms
moved types parse time: 40ms
candidates parse time : 1ms
C# parse time         : 154ms
candidates check time : 30ms
console write time    : 0ms

[api-updater (non-obsolete-error-filter)] 22.06.2021 12.19.43 : Starting C:/Program Files/Unity/Hub/Editor/2020.2.1f1/Editor/Data/Tools/ScriptUpdater/APIUpdater.NonObsoleteApiUpdaterDetector.exe
[api-updater (non-obsolete-error-filter)] 
----------------------------------
jit/startup time      : 52,8604ms
moved types parse time: 45ms
candidates parse time : 1ms
C# parse time         : 166ms
candidates check time : 30ms
console write time    : 0ms

[api-updater (non-obsolete-error-filter)] 25.06.2021 16.10.00 : Starting C:/Program Files/Unity/Hub/Editor/2020.2.1f1/Editor/Data/Tools/ScriptUpdater/APIUpdater.NonObsoleteApiUpdaterDetector.exe
[api-updater (non-obsolete-error-filter)] 
----------------------------------
jit/startup time      : 135,3612ms
moved types parse time: 52ms
candidates parse time : 0ms
C# parse time         : 197ms
candidates check time : 30ms
console write time    : 0ms

[api-updater (non-obsolete-error-filter)] 25.06.2021 16.25.07 : Starting C:/Program Files/Unity/Hub/Editor/2020.2.1f1/Editor/Data/Tools/ScriptUpdater/APIUpdater.NonObsoleteApiUpdaterDetector.exe
[api-updater (non-obsolete-error-filter)] 
----------------------------------
jit/startup time      : 53,8564ms
moved types parse time: 43ms
candidates parse time : 1ms
C# parse time         : 150ms
candidates check time : 24ms
console write time    : 0ms

[api-updater (non-obsolete-error-filter)] 25.06.2021 16.26.47 : Starting C:/Program Files/Unity/Hub/Editor/2020.2.1f1/Editor/Data/Tools/ScriptUpdater/APIUpdater.NonObsoleteApiUpdaterDetector.exe
[api-updater (non-obsolete-error-filter)] 
----------------------------------
jit/startup time      : 51,8699ms
moved types parse time: 42ms
candidates parse time : 1ms
C# parse time         : 148ms
candidates check time : 24ms
console write time    : 0ms

[api-updater (non-obsolete-error-filter)] 25.06.2021 16.27.41 : Starting C:/Program Files/Unity/Hub/Editor/2020.2.1f1/Editor/Data/Tools/ScriptUpdater/APIUpdater.NonObsoleteApiUpdaterDetector.exe
[api-updater (non-obsolete-error-filter)] 
----------------------------------
jit/startup time      : 53,8943ms
moved types parse time: 48ms
candidates parse time : 1ms
C# parse time         : 179ms
candidates check time : 33ms
console write time    : 0ms

[api-updater (non-obsolete-error-filter)] 25.06.2021 16.28.05 : Starting C:/Program Files/Unity/Hub/Editor/2020.2.1f1/Editor/Data/Tools/ScriptUpdater/APIUpdater.NonObsoleteApiUpdaterDetector.exe
[api-updater (non-obsolete-error-filter)] 
----------------------------------
jit/startup time      : 53,0517ms
moved types parse time: 42ms
candidates parse time : 1ms
C# parse time         : 149ms
candidates check time : 24ms
console write time    : 0ms

[api-updater (non-obsolete-error-filter)] 25.06.2021 17.31.00 : Starting C:/Program Files/Unity/Hub/Editor/2020.2.1f1/Editor/Data/Tools/ScriptUpdater/APIUpdater.NonObsoleteApiUpdaterDetector.exe
[api-updater (non-obsolete-error-filter)] 
----------------------------------
jit/startup time      : 54,7711ms
moved types parse time: 41ms
candidates parse time : 1ms
C# parse time         : 157ms
candidates check time : 26ms
console write time    : 0ms

[api-updater (non-obsolete-error-filter)] 26.06.2021 18.33.56 : Starting C:/Program Files/Unity/Hub/Editor/2020.2.1f1/Editor/Data/Tools/ScriptUpdater/APIUpdater.NonObsoleteApiUpdaterDetector.exe
[api-updater (non-obsolete-error-filter)] 
----------------------------------
jit/startup time      : 1459,7ms
moved types parse time: 48ms
candidates parse time : 1ms
C# parse time         : 179ms
candidates check time : 32ms
console write time    : 0ms

[api-updater (non-obsolete-error-filter)] 27.06.2021 20.52.30 : Starting C:/Program Files/Unity/Hub/Editor/2020.2.1f1/Editor/Data/Tools/ScriptUpdater/APIUpdater.NonObsoleteApiUpdaterDetector.exe
[api-updater (non-obsolete-error-filter)] 
----------------------------------
jit/startup time      : 671,8031ms
moved types parse time: 51ms
candidates parse time : 0ms
C# parse time         : 170ms
candidates check time : 26ms
console write time    : 0ms

[api-updater (non-obsolete-error-filter)] 29.06.2021 18.11.33 : Starting C:/Program Files/Unity/Hub/Editor/2020.2.1f1/Editor/Data/Tools/ScriptUpdater/APIUpdater.NonObsoleteApiUpdaterDetector.exe
[api-updater (non-obsolete-error-filter)] 
----------------------------------
jit/startup time      : 255,4054ms
moved types parse time: 54ms
candidates parse time : 1ms
C# parse time         : 193ms
candidates check time : 25ms
console write time    : 0ms

[api-updater (non-obsolete-error-filter)] 29.06.2021 18.35.24 : Starting C:/Program Files/Unity/Hub/Editor/2020.2.1f1/Editor/Data/Tools/ScriptUpdater/APIUpdater.NonObsoleteApiUpdaterDetector.exe
[api-updater (non-obsolete-error-filter)] 
----------------------------------
jit/startup time      : 51,8516ms
moved types parse time: 42ms
candidates parse time : 0ms
C# parse time         : 127ms
candidates check time : 20ms
console write time    : 0ms

[api-updater (non-obsolete-error-filter)] 29.06.2021 18.35.39 : Starting C:/Program Files/Unity/Hub/Editor/2020.2.1f1/Editor/Data/Tools/ScriptUpdater/APIUpdater.NonObsoleteApiUpdaterDetector.exe
[api-updater (non-obsolete-error-filter)] 
----------------------------------
jit/startup time      : 50,9667ms
moved types parse time: 42ms
candidates parse time : 1ms
C# parse time         : 125ms
candidates check time : 20ms
console write time    : 0ms

[api-updater (non-obsolete-error-filter)] 29.06.2021 18.36.01 : Starting C:/Program Files/Unity/Hub/Editor/2020.2.1f1/Editor/Data/Tools/ScriptUpdater/APIUpdater.NonObsoleteApiUpdaterDetector.exe
[api-updater (non-obsolete-error-filter)] 
----------------------------------
jit/startup time      : 51,0772ms
moved types parse time: 42ms
candidates parse time : 1ms
C# parse time         : 129ms
candidates check time : 19ms
console write time    : 0ms

